aiogram==2.15
aiohttp==3.7.4.post0
async-timeout==3.0.1
asyncpg==0.24.0
attrs==21.2.0
Babel==2.9.1
certifi==2021.5.30
chardet==4.0.0
charset-normalizer==2.0.6
databases==0.5.2
fastapi==0.68.1
greenlet==1.1.2
idna==3.2
multidict==5.1.0
psycopg2==2.9.1
pydantic==1.8.2
PyMySQL==1.0.2
pytz==2021.1
requests==2.26.0
selenium==3.141.0
SQLAlchemy==1.4.25
starlette==0.14.2
typing-extensions==3.10.0.2
urllib3==1.26.7
yarl==1.6.3
